Quick Introduction to R, R Markdown, & the tidyverse
…
color: female crabs color (2 = light, 3 = medium, 4 = dark, and 5 = darker)

spine: spine condition (1 = both good, 2 = one worn or broken, and 3 = both worn or broken)

weight: female crab weight (g)

width: female carapace width (cm)

We read in the data using the read_delim() function from the readr package (part of the tidyverse). The data is tab delimited. readr reads the data and stores it as a tibble. tibbles are special data frames - 2D data sets where rows represent observations and columns represent variables, usually.

crabData <- read_tsv("https://www4.stat.ncsu.edu/~online/datasets/crabs.txt")
crabData

## # A tibble: 173 x 6
##    color spine width satell weight     y
##    <dbl> <dbl> <dbl>  <dbl>  <dbl> <dbl>
##  1     3     3  28.3      8   3050     1
##  2     4     3  22.5      0   1550     0
##  3     2     1  26        9   2300     1
##  4     4     3  24.8      0   2100     0
##  5     4     3  26        4   2600     1
##  6     3     3  23.8      0   2100     0
##  7     2     1  26.5      0   2350     0
##  8     4     2  24.7      0   1900     0
##  9     3     1  23.7      0   1950     0
## 10     4     3  25.6      0   2150     0
## # ... with 163 more rows
…
