Using R Markdown & the Tidyverse to Create Reproducible Research
…
#  Reading a .csv File  

With `neuralgia.csv` file in the working directory:

```r
neuralgiaData <- read_csv("neuralgia.csv")
```

```r
neuralgiaData
```

```
## # A tibble: 60 x 5
##   Treatment Sex     Age Duration Pain 
##   <chr>     <chr> <dbl>    <dbl> <chr>
## 1 P         F        68        1 No   
## 2 B         M        74       16 No   
## 3 P         F        67       30 No   
## 4 P         M        66       26 Yes  
## 5 B         F        67       28 No   
## # ... with 55 more rows
```
…
- Use full local path  

```r
neuralgiaData <- read_csv("C:/Users/jbpost2/repos/Basics-of-R/datasets/neuralgia.csv")
```

- R can pull from URLs as well!  

```r
neuralgiaData <- read_csv("https://www4.stat.ncsu.edu/~online/datasets/neuralgia.csv")
neuralgiaData
```

```
## # A tibble: 60 x 5
##   Treatment Sex     Age Duration Pain 
##   <chr>     <chr> <dbl>    <dbl> <chr>
## 1 P         F        68        1 No   
## 2 B         M        74       16 No   
## 3 P         F        67       30 No   
## 4 P         M        66       26 Yes  
## 5 B         F        67       28 No   
## # ... with 55 more rows
```
…
#  `tibbles`

- `tibbles` are the main object the tidyverse works with  

    + Fancy printing!  

        * Checking column type is a basic data validation step  

```r
neuralgiaData
```

```
## # A tibble: 60 x 5
##   Treatment Sex     Age Duration Pain 
##   <chr>     <chr> <dbl>    <dbl> <chr>
## 1 P         F        68        1 No   
## 2 B         M        74       16 No   
## 3 P         F        67       30 No   
## 4 P         M        66       26 Yes  
## 5 B         F        67       28 No   
## # ... with 55 more rows
```
…
---

#  `tibbles`  

- `tibbles` do not simplify

<div style="float: left; width: 35%;">

```r
neuralgiaData[ ,1]
```

```
## # A tibble: 60 x 1
##   Treatment
##   <chr>    
## 1 P        
## 2 B        
## 3 P        
## 4 P        
## 5 B        
## # ... with 55 more rows
```
…
---

#  Reading Tab Delimited Data  

- Let's read in the '[crabs.txt](https://www4.stat.ncsu.edu/~online/datasets/crabs.txt)' file (tab delimited) with `read_tsv()`  

```r
read_tsv("https://www4.stat.ncsu.edu/~online/datasets/crabs.txt")
```

```
## # A tibble: 173 x 6
##   color spine width satell weight     y
##   <dbl> <dbl> <dbl>  <dbl>  <dbl> <dbl>
## 1     3     3  28.3      8   3050     1
## 2     4     3  22.5      0   1550     0
## 3     2     1  26        9   2300     1
## 4     4     3  24.8      0   2100     0
## 5     4     3  26        4   2600     1
## # ... with 168 more rows
```
…
---

#  Reading Generic Delimted Data 

- Let's read in the '[umps2012.txt](https://www4.stat.ncsu.edu/~online/datasets/umps2012.txt)' file ('>' delimited) with `read_delim()`  

```r
read_delim("https://www4.stat.ncsu.edu/~online/datasets/umps2012.txt", 
           delim = ">",
           col_names = c("Year", "Month", "Day", "Home", "Away", "HPUmpire"))
```

```
## # A tibble: 2,359 x 6
##    Year Month   Day Home  Away  HPUmpire        
##   <dbl> <dbl> <dbl> <chr> <chr> <chr>           
## 1  2012     4    12 MIN   LAA   D.J. Reyburn    
## 2  2012     4    12 SD    ARI   Marty Foster    
## 3  2012     4    12 WSH   CIN   Mike Everitt    
## 4  2012     4    12 PHI   MIA   Jeff Nelson     
## 5  2012     4    12 CHC   MIL   Fieldin Culbreth
## # ... with 2,354 more rows
```
…
#  `read_excel()`

```r
#install package if necessary
library(readxl)
#reads first sheet by default
edData <- read_excel("censusEd.xlsx")
```

```r
edData
```

```
## # A tibble: 3,198 x 42
##   Area_name     STCOU EDU010187F EDU010187D EDU010187N1 EDU010187N2 EDU010188F
##   <chr>         <chr>      <dbl>      <dbl> <chr>       <chr>            <dbl>
## 1 UNITED STATES 00000          0   40024299 0000        0000                 0
## 2 ALABAMA       01000          0     733735 0000        0000                 0
## 3 Autauga, AL   01001          0       6829 0000        0000                 0
## 4 Baldwin, AL   01003          0      16417 0000        0000                 0
## 5 Barbour, AL   01005          0       5071 0000        0000                 0
## # ... with 3,193 more rows, and 35 more variables: EDU010188D <dbl>,
## #   EDU010188N1 <chr>, EDU010188N2 <chr>, EDU010189F <dbl>, EDU010189D <dbl>,
## #   EDU010189N1 <chr>, EDU010189N2 <chr>, EDU010190F <dbl>, EDU010190D <dbl>,
## #   EDU010190N1 <chr>, EDU010190N2 <chr>, EDU010191F <dbl>, EDU010191D <dbl>,
## #   EDU010191N1 <chr>, EDU010191N2 <chr>, EDU010192F <dbl>, EDU010192D <dbl>,
## #   EDU010192N1 <chr>, EDU010192N2 <chr>, EDU010193F <dbl>, EDU010193D <dbl>,
## #   EDU010193N1 <chr>, EDU010193N2 <chr>, EDU010194F <dbl>, ...
```
…
```
##  [1] "EDU01A" "EDU01B" "EDU01C" "EDU01D" "EDU01E" "EDU01F" "EDU01G" "EDU01H"
##  [9] "EDU01I" "EDU01J"
```

- Specify sheet with name or integers (or `NULL` for 1st) using `sheet =`  

```r
read_excel("censusEd.xlsx", sheet = "EDU01D")
```

```
## # A tibble: 3,198 x 42
##   Area_name     STCOU EDU264190F EDU264190D EDU264190N1 EDU264190N2 EDU280190F
##   <chr>         <chr>      <dbl>      <dbl> <chr>       <chr>            <dbl>
## 1 UNITED STATES 00000          0    4187099 0000        0000                 0
## 2 ALABAMA       01000          0      57284 0000        0000                 0
## 3 Autauga, AL   01001          0        604 0000        0000                 0
## 4 Baldwin, AL   01003          0       1761 0000        0000                 0
## 5 Barbour, AL   01005          0        466 0000        0000                 0
## # ... with 3,193 more rows, and 35 more variables: EDU280190D <dbl>,
## #   EDU280190N1 <chr>, EDU280190N2 <chr>, EDU282190F <dbl>, EDU282190D <dbl>,
## #   EDU282190N1 <chr>, EDU282190N2 <chr>, EDU284190F <dbl>, EDU284190D <dbl>,
## #   EDU284190N1 <chr>, EDU284190N2 <chr>, EDU299190F <dbl>, EDU299190D <dbl>,
## #   EDU299190N1 <chr>, EDU299190N2 <chr>, EDU300200F <dbl>, EDU300200D <dbl>,
## #   EDU300200N1 <chr>, EDU300200N2 <chr>, EDU310200F <dbl>, EDU310200D <dbl>,
## #   EDU310200N1 <chr>, EDU310200N2 <chr>, EDU312200F <dbl>, ...
```
…
---

#  `read_sas()`

```r
#install if necessary
library(haven)
smokeData <- read_sas("https://www4.stat.ncsu.edu/~online/datasets/smoke2003.sas7bdat")
smokeData
```

```
## # A tibble: 443 x 54
##    SEQN SDDSRVYR RIDSTATR RIDEXMON RIAGENDR RIDAGEYR RIDAGEMN RIDAGEEX RIDRETH1
##   <dbl>    <dbl>    <dbl>    <dbl>    <dbl>    <dbl>    <dbl>    <dbl>    <dbl>
## 1 21010        3        2        2        2       52      633      634        3
## 2 21012        3        2        2        1       63      765      766        4
## 3 21048        3        2        1        2       42      504      504        1
## 4 21084        3        2        1        2       57      692      693        3
## 5 21093        3        2        1        2       64      778      778        2
## # ... with 438 more rows, and 45 more variables: RIDRETH2 <dbl>,
## #   DMQMILIT <dbl>, DMDBORN <dbl>, DMDCITZN <dbl>, DMDYRSUS <dbl>,
## #   DMDEDUC3 <dbl>, DMDEDUC2 <dbl>, DMDEDUC <dbl>, DMDSCHOL <dbl>,
## #   DMDMARTL <dbl>, DMDHHSIZ <dbl>, INDHHINC <dbl>, INDFMINC <dbl>,
## #   INDFMPIR <dbl>, RIDEXPRG <dbl>, DMDHRGND <dbl>, DMDHRAGE <dbl>,
## #   DMDHRBRN <dbl>, DMDHREDU <dbl>, DMDHRMAR <dbl>, DMDHSEDU <dbl>,
## #   SIALANG <dbl>, SIAPROXY <dbl>, SIAINTRP <dbl>, FIALANG <dbl>, ...
```
…
---

# Connect to `chinook` Database

- `chinook` database is a commonly used intro database

```r
dbGetQuery(con, "SELECT * FROM invoices") %>% 
  collect() %>% 
  as_tibble()
```

```
## # A tibble: 412 x 9
##   InvoiceId CustomerId InvoiceDate       BillingAddress BillingCity BillingState
##       <int>      <int> <chr>             <chr>          <chr>       <chr>       
## 1         1          2 2009-01-01 00:00~ Theodor-Heuss~ Stuttgart   <NA>        
## 2         2          4 2009-01-02 00:00~ Ullevlsveien~ Oslo        <NA>        
## 3         3          8 2009-01-03 00:00~ Grtrystraat ~ Brussels    <NA>        
## 4         4         14 2009-01-06 00:00~ 8210 111 ST NW Edmonton    AB          
## 5         5         23 2009-01-11 00:00~ 69 Salem Stre~ Boston      MA          
## # ... with 407 more rows, and 3 more variables: BillingCountry <chr>,
## #   BillingPostalCode <chr>, Total <dbl>
```
…
---

# `as_tibble()` - A Tidy Data Frame 

- Can 'wrap' a standard R data frame to convert it to a `tibble`

```r
myBatting <- as_tibble(Batting)
myBatting
```

```
## # A tibble: 108,789 x 22
##   playerID  yearID stint teamID lgID      G    AB     R     H   X2B   X3B    HR
##   <chr>      <int> <int> <fct>  <fct> <int> <int> <int> <int> <int> <int> <int>
## 1 abercda01   1871     1 TRO    NA        1     4     0     0     0     0     0
## 2 addybo01    1871     1 RC1    NA       25   118    30    32     6     0     0
## 3 allisar01   1871     1 CL1    NA       29   137    28    40     4     5     0
## 4 allisdo01   1871     1 WS3    NA       27   133    28    44    10     2     2
## 5 ansonca01   1871     1 RC1    NA       25   120    29    39    11     3     0
## # ... with 108,784 more rows, and 10 more variables: RBI <int>, SB <int>,
## #   CS <int>, BB <int>, SO <int>, IBB <int>, HBP <int>, SH <int>, SF <int>,
## #   GIDP <int>
```
…
---

# `filter()` - Subset Rows 

- Return observations where myBatting$G is greater than 20

```r
filter(myBatting, G > 20)
```

```
## # A tibble: 70,926 x 22
##   playerID  yearID stint teamID lgID      G    AB     R     H   X2B   X3B    HR
##   <chr>      <int> <int> <fct>  <fct> <int> <int> <int> <int> <int> <int> <int>
## 1 addybo01    1871     1 RC1    NA       25   118    30    32     6     0     0
## 2 allisar01   1871     1 CL1    NA       29   137    28    40     4     5     0
## 3 allisdo01   1871     1 WS3    NA       27   133    28    44    10     2     2
## 4 ansonca01   1871     1 RC1    NA       25   120    29    39    11     3     0
## 5 barnero01   1871     1 BS1    NA       31   157    66    63    10     9     0
## # ... with 70,921 more rows, and 10 more variables: RBI <int>, SB <int>,
## #   CS <int>, BB <int>, SO <int>, IBB <int>, HBP <int>, SH <int>, SF <int>,
## #   GIDP <int>
```
…
---

# `filter()` - Subset Rows 

- Pull out those that played more than 20 games and played in 2015

```r
filter(myBatting, (G > 20) & (yearID == 2015))
```

```
## # A tibble: 949 x 22
##   playerID  yearID stint teamID lgID      G    AB     R     H   X2B   X3B    HR
##   <chr>      <int> <int> <fct>  <fct> <int> <int> <int> <int> <int> <int> <int>
## 1 aardsda01   2015     1 ATL    NL       33     1     0     0     0     0     0
## 2 abadfe01    2015     1 OAK    AL       62     0     0     0     0     0     0
## 3 abreujo02   2015     1 CHA    AL      154   613    88   178    34     3    30
## 4 ackledu01   2015     1 SEA    AL       85   186    22    40     8     1     6
## 5 ackledu01   2015     2 NYA    AL       23    52     6    15     3     2     4
## # ... with 944 more rows, and 10 more variables: RBI <int>, SB <int>, CS <int>,
## #   BB <int>, SO <int>, IBB <int>, HBP <int>, SH <int>, SF <int>, GIDP <int>
```

---

# `filter()` - Subset Rows 

- `%in%` to choose any observations matching a vector

```r
filter(myBatting, teamID %in% c("ATL", "PIT", "WSH"))
```

```
## # A tibble: 7,236 x 22
##   playerID  yearID stint teamID lgID      G    AB     R     H   X2B   X3B    HR
##   <chr>      <int> <int> <fct>  <fct> <int> <int> <int> <int> <int> <int> <int>
## 1 barklsa01   1887     1 PIT    NL       89   340    44    76    10     4     1
## 2 beeched01   1887     1 PIT    NL       41   169    15    41     8     0     2
## 3 bishobi01   1887     1 PIT    NL        3     9     0     0     0     0     0
## 4 brownto01   1887     1 PIT    NL       47   192    30    47     3     4     0
## 5 carrofr01   1887     1 PIT    NL      102   421    71   138    24    15     6
## # ... with 7,231 more rows, and 10 more variables: RBI <int>, SB <int>,
## #   CS <int>, BB <int>, SO <int>, IBB <int>, HBP <int>, SH <int>, SF <int>,
## #   GIDP <int>
```

---

# `arrange()` - Reorder Rows

- Other major observation (row) manipulation is to reorder the observations (rows) 

```r
arrange(myBatting, teamID)
```

```
## # A tibble: 108,789 x 22
##   playerID  yearID stint teamID lgID      G    AB     R     H   X2B   X3B    HR
##   <chr>      <int> <int> <fct>  <fct> <int> <int> <int> <int> <int> <int> <int>
## 1 berrych01   1884     1 ALT    UA        7    25     2     6     0     0     0
## 2 brownji01   1884     1 ALT    UA       21    88    12    22     2     2     1
## 3 carropa01   1884     1 ALT    UA       11    49     4    13     1     0     0
## 4 connojo01   1884     1 ALT    UA        3    11     0     1     0     0     0
## 5 crosscl01   1884     1 ALT    UA        2     7     1     4     1     0     0
## # ... with 108,784 more rows, and 10 more variables: RBI <int>, SB <int>,
## #   CS <int>, BB <int>, SO <int>, IBB <int>, HBP <int>, SH <int>, SF <int>,
## #   GIDP <int>
```

---

# `arrange()` - Reorder Rows

- Can obtain a secondary arrangement  

```r
arrange(myBatting, teamID, G)
```

```
## # A tibble: 108,789 x 22
##   playerID  yearID stint teamID lgID      G    AB     R     H   X2B   X3B    HR
##   <chr>      <int> <int> <fct>  <fct> <int> <int> <int> <int> <int> <int> <int>
## 1 daisege01   1884     1 ALT    UA        1     4     0     0     0     0     0
## 2 crosscl01   1884     1 ALT    UA        2     7     1     4     1     0     0
## 3 manloch01   1884     1 ALT    UA        2     7     1     3     0     0     0
## 4 connojo01   1884     1 ALT    UA        3    11     0     1     0     0     0
## 5 shafff01    1884     1 ALT    UA        6    19     1     3     0     0     0
## # ... with 108,784 more rows, and 10 more variables: RBI <int>, SB <int>,
## #   CS <int>, BB <int>, SO <int>, IBB <int>, HBP <int>, SH <int>, SF <int>,
## #   GIDP <int>
```

---

# `arrange()` - Reorder Rows

- Can reorder descending on a variable  

```r
arrange(myBatting, teamID, desc(G))
```

```
## # A tibble: 108,789 x 22
##   playerID  yearID stint teamID lgID      G    AB     R     H   X2B   X3B    HR
##   <chr>      <int> <int> <fct>  <fct> <int> <int> <int> <int> <int> <int> <int>
## 1 smithge01   1884     1 ALT    UA       25   108     9    34     8     1     0
## 2 harrifr01   1884     1 ALT    UA       24    95    10    25     2     1     0
## 3 doughch01   1884     1 ALT    UA       23    85     6    22     5     0     0
## 4 murphjo01   1884     1 ALT    UA       23    94    10    14     1     0     0
## 5 brownji01   1884     1 ALT    UA       21    88    12    22     2     2     1
## # ... with 108,784 more rows, and 10 more variables: RBI <int>, SB <int>,
## #   CS <int>, BB <int>, SO <int>, IBB <int>, HBP <int>, SH <int>, SF <int>,
## #   GIDP <int>
```
…
---

# `select()` - Subset Columns

- `select()` function has same syntax as other `dplyr` functions:  

`function(tibble, actions, ...)`

```r
select(myBatting, X2B)
```

```
## # A tibble: 108,789 x 1
##     X2B
##   <int>
## 1     0
## 2     6
## 3     4
## 4    10
## 5    11
## # ... with 108,784 more rows
```

---

# `select()` - Subset Columns

- `select()` function has same syntax as other `dplyr` functions:  

`function(tibble, actions, ...)`

```r
select(myBatting, playerID, X2B)
```

```
## # A tibble: 108,789 x 2
##   playerID    X2B
##   <chr>     <int>
## 1 abercda01     0
## 2 addybo01      6
## 3 allisar01     4
## 4 allisdo01    10
## 5 ansonca01    11
## # ... with 108,784 more rows
```

---

# Piping or Chaining

- When applying multiple functions, reading the code can be difficult!  

```r
arrange(select(filter(myBatting, teamID == "PIT"), playerID, G, X2B), desc(X2B))
```

```
## # A tibble: 4,920 x 3
##   playerID      G   X2B
##   <chr>     <int> <int>
## 1 wanerpa01   154    62
## 2 wanerpa01   148    53
## 3 sanchfr01   157    53
## 4 wanerpa01   152    50
## 5 comorad01   152    47
## # ... with 4,915 more rows
```
---

# Piping or Chaining

- Piping or Chaining with `%>%` operator helps make code more readable

```r
myBatting %>% 
  filter(teamID == "PIT") %>% 
  select(playerID, G, X2B) %>% 
  arrange(desc(X2B)) 
```

```
## # A tibble: 4,920 x 3
##   playerID      G   X2B
##   <chr>     <int> <int>
## 1 wanerpa01   154    62
## 2 wanerpa01   148    53
## 3 sanchfr01   157    53
## 4 wanerpa01   152    50
## 5 comorad01   152    47
## # ... with 4,915 more rows
```
…
# `select()` - Subset Columns

- Great functionality for choosing variables  

    + All columns between

```r
#all columns between
myBatting %>% 
  select(X2B:HR)
```

```
## # A tibble: 108,789 x 3
##     X2B   X3B    HR
##   <int> <int> <int>
## 1     0     0     0
## 2     6     0     0
## 3     4     5     0
## 4    10     2     2
## 5    11     3     0
## # ... with 108,784 more rows
```
---

# `select()` - Subset Columns

- Great functionality for choosing variables  

    + All columns containing

```r
myBatting %>% 
  select(contains("X"))
```

```
## # A tibble: 108,789 x 2
##     X2B   X3B
##   <int> <int>
## 1     0     0
## 2     6     0
## 3     4     5
## 4    10     2
## 5    11     3
## # ... with 108,784 more rows
```
---

# `select()` - Subset Columns

- Great functionality for choosing variables  

    + All columns starting with

```r
myBatting %>% 
  select(starts_with("X"))
```

```
## # A tibble: 108,789 x 2
##     X2B   X3B
##   <int> <int>
## 1     0     0
## 2     6     0
## 3     4     5
## 4    10     2
## 5    11     3
## # ... with 108,784 more rows
```
---

# `select()` - Subset Columns

- Great functionality for choosing variables  

    + Combinations of operators

```r
myBatting %>% 
  select(starts_with("X"), ends_with("ID"), G)
```

```
## # A tibble: 108,789 x 7
##     X2B   X3B playerID  yearID teamID lgID      G
##   <int> <int> <chr>      <int> <fct>  <fct> <int>
## 1     0     0 abercda01   1871 TRO    NA        1
## 2     6     0 addybo01    1871 RC1    NA       25
## 3     4     5 allisar01   1871 CL1    NA       29
## 4    10     2 allisdo01   1871 WS3    NA       27
## 5    11     3 ansonca01   1871 RC1    NA       25
## # ... with 108,784 more rows
```

---

# `select()` - Subset Columns

- Can reorder variables with `everything()`

```r
myBatting %>% 
  select(playerID, HR, everything())
```

```
## # A tibble: 108,789 x 22
##   playerID     HR yearID stint teamID lgID      G    AB     R     H   X2B   X3B
##   <chr>     <int>  <int> <int> <fct>  <fct> <int> <int> <int> <int> <int> <int>
## 1 abercda01     0   1871     1 TRO    NA        1     4     0     0     0     0
## 2 addybo01      0   1871     1 RC1    NA       25   118    30    32     6     0
## 3 allisar01     0   1871     1 CL1    NA       29   137    28    40     4     5
## 4 allisdo01     2   1871     1 WS3    NA       27   133    28    44    10     2
## 5 ansonca01     0   1871     1 RC1    NA       25   120    29    39    11     3
## # ... with 108,784 more rows, and 10 more variables: RBI <int>, SB <int>,
## #   CS <int>, BB <int>, SO <int>, IBB <int>, HBP <int>, SH <int>, SF <int>,
## #   GIDP <int>
```

---

# `rename()` - Rename Columns

- Easy to rename multple columns (variables) at once  

```r
myBatting %>% 
  select(starts_with("X"), ends_with("ID"), G) %>% 
  rename("Doubles" = X2B, "Triples" = X3B)
```

```
## # A tibble: 108,789 x 7
##   Doubles Triples playerID  yearID teamID lgID      G
##     <int>   <int> <chr>      <int> <fct>  <fct> <int>
## 1       0       0 abercda01   1871 TRO    NA        1
## 2       6       0 addybo01    1871 RC1    NA       25
## 3       4       5 allisar01   1871 CL1    NA       29
## 4      10       2 allisdo01   1871 WS3    NA       27
## 5      11       3 ansonca01   1871 RC1    NA       25
## # ... with 108,784 more rows
```
…
